<?xml version="1.0" encoding="UTF-8"?>
<svg width="114px" height="100px" viewBox="0 0 114 100" version="1.1" xmlns="http://www.w3.org/2000/svg" xmlns:xlink="http://www.w3.org/1999/xlink">
    <!-- Generator: sketchtool 41.2 (35397) - http://www.bohemiancoding.com/sketch -->
    <title>AF527CEF-86C8-4FCF-ABE5-293C96A0125D</title>
    <desc>Created with sketchtool.</desc>
    <defs></defs>
    <g id="Page-1" stroke="none" stroke-width="1" fill="none" fill-rule="evenodd">
        <g id="Image-Gallery" transform="translate(-54.000000, -91.000000)" fill="#43484C">
            <g id="logo" transform="translate(54.000000, 91.000000)">
                <path d="M52.5212948,15.4395058 C52.5212577,15.4394847 52.3031807,15.315449 51.3843936,15.2844382 C48.5343538,15.0673434 45.4818521,15.160384 44.251507,15.4860261 C44.204785,15.4860261 43.2236238,19.3937317 42.912144,19.8899482 C42.6941082,20.2310971 40.5916197,17.5949466 40.7473596,16.3388984 C40.9342475,15.0673434 43.1146058,14.2609915 43.1146058,14.2609915 L44.4072469,9.70200168 C44.4072469,9.70200168 42.1334446,13.7957884 41.2145793,14.0749102 C40.6071937,14.2609915 39.8440683,13.9818696 39.7039024,13.4701463 C39.2211088,11.6713612 44.1113411,2.9565576 43.5039555,1.90209738 C43.3793636,1.62297555 42.3982024,1.79355 41.4949111,2.83250346 C40.4358799,4.13507197 39.2989787,6.61615485 38.7071672,9.36085278 C38.4891313,10.2912589 38.7538891,11.5783206 38.7538891,11.5783206 C38.7538891,11.5783206 37.9907637,11.4387597 37.8505978,10.1827115 C37.523544,7.43801355 40.1244001,2.07267183 42.0867226,1.45240111 C43.9711752,0.909664226 44.4695428,1.84007031 44.5474128,2.77047639 C44.7498746,4.29013965 40.4514538,13.5321734 40.9653955,13.1910245 C42.9744399,11.7488951 47.5999145,0.987198066 48.7991116,0.165339363 C49.3909231,-0.268850141 50.4655283,0.289393507 50.2163445,0.289393507 C50.2163445,0.289393507 49.7024029,0.723583011 49.3753491,1.29733343 C46.0113677,7.50004062 44.6252827,13.9818696 44.6252827,13.9818696 C44.6252827,13.9818696 48.5032058,13.6097072 51.9606312,14.0749102 C53.0194235,14.229943 52.5215195,15.4389603 52.5212948,15.4395056 L52.5212948,15.4395058 Z M52.5212948,15.4395056 C52.5212948,15.4395058 52.5212948,15.4395058 52.5212948,15.4395058 L52.5212948,15.4395056 Z M41.3547452,16.7575811 C41.0899874,17.300318 42.1490186,18.7114339 42.1490186,18.7114339 L42.7719781,15.8116683 C42.7719781,15.8116683 41.6506509,16.028763 41.3547452,16.7575811 Z M48.254022,11.1131176 C47.7400804,11.1131176 47.7400804,10.880516 47.7400804,10.880516 C47.7400804,10.880516 47.5999145,11.0976108 47.5531925,11.6248409 C47.5064705,12.2140981 47.5999145,12.5707538 48.0048382,12.4777131 C48.4409098,12.4001793 48.8769815,12.0590304 49.2819052,11.7333883 C50.1540485,11.0355837 50.6368422,10.3532859 50.6368422,10.3532859 C50.6368422,10.3532859 50.6368422,10.7254484 50.3565104,11.2526785 C49.8737168,12.1210575 48.7523896,13.2375448 47.7400804,13.2375448 C47.3663046,13.2375448 46.4941613,12.9739297 46.3695694,11.7333883 C46.2449775,10.880516 46.6187532,9.23679864 47.8802463,7.53105416 C48.254022,7.14338496 49.0638694,6.43007363 49.7491248,6.52311424 C50.3409364,6.58514131 50.9016,7.08135789 50.9950439,7.2674391 C51.7581693,8.67855499 48.7523896,11.1131176 48.254022,11.1131176 Z M50.3565104,7.12787819 C50.3565104,7.12787819 49.7491248,7.25193233 49.0171474,8.10480457 C48.254022,9.00419712 47.8802463,10.2292318 47.8802463,10.2292318 C47.8802463,10.2292318 48.5032058,10.3377792 49.9983087,8.24436549 C50.3565104,7.608588 50.3565104,7.12787819 50.3565104,7.12787819 Z M53.7360658,5.68574876 C53.7360658,5.68574877 53.7360658,5.68574877 53.7360658,5.68574877 L53.7360658,5.68574876 Z M53.7360658,5.68574877 C53.7360445,5.68580549 52.9885064,7.67064166 52.4278508,9.53142723 C51.9450572,11.1596379 51.8204653,12.5087267 52.178667,12.6017673 C52.8639225,12.7723417 54.0942676,10.7564619 54.2967294,10.3532859 C54.3590254,10.2447386 54.4368953,10.7874754 54.0319716,11.5318003 C53.7516398,12.0280169 52.5524427,13.5321734 51.6024295,13.1910245 C50.1229006,12.6482876 51.0261919,8.91115651 52.3967029,5.68574877 C51.9762052,5.7167623 51.4466896,5.73226907 51.2598017,5.65473523 C50.9638959,5.51517432 51.0573399,4.81736976 51.0573399,4.81736976 L52.8172005,4.72432915 C53.6426219,3.00307791 54.5459132,1.54544171 55.2000207,1.03371837 C56.0721641,0.304900275 56.8041415,0.630542403 57.0066034,0.754596547 C56.9131595,0.723583011 56.7106976,0.754596547 56.2590519,1.17327928 C55.3713346,2.05716506 54.2500075,4.70882238 54.2500075,4.70882238 C54.2500075,4.70882238 54.7483751,4.66230208 55.6360924,4.75534269 C56.0877381,4.80186299 56.1033121,5.57720139 56.1033121,5.57720139 C56.1033121,5.57720139 55.8541283,5.56169462 54.7639491,5.60821493 C53.6272867,5.65472546 53.7360201,5.68573574 53.7360658,5.68574876 L53.7360658,5.68574877 Z M57.0066034,0.754596547 C57.0533253,0.770103315 57.0688993,0.801116851 57.0688993,0.801116851 L57.0066034,0.754596547 Z M64.3575259,12.2296049 C64.3886738,12.3071387 64.9181894,11.8109221 65.3075391,11.2681852 C65.9927946,10.3067656 66.7247721,8.91115651 66.7247721,8.91115651 C66.7247721,8.91115651 65.9616466,12.7413282 64.4665438,13.2375448 C64.123916,13.3615989 63.4075126,13.0979839 63.2673467,12.9429162 C62.9402929,12.4777131 63.1427548,11.2681852 63.1427548,11.2681852 C63.1427548,11.2681852 61.7878178,13.2065312 61.4296161,13.2685583 C61.0714143,13.3150786 60.230419,13.0824771 60.0902531,12.6948079 C59.9033652,12.3226455 59.9189392,9.45389339 62.4886473,7.2674391 C63.2517727,6.60064808 64.5755617,7.67061507 64.5755617,7.67061507 C64.5755617,7.67061507 64.8403195,6.95730374 65.2763912,6.86426313 C65.7436108,6.72470222 66.3354224,7.17439849 66.3354224,7.17439849 C66.3354224,7.17439849 66.0239426,7.59308123 65.6813149,8.21335195 C64.7313016,9.77953552 64.2952299,12.1365643 64.3575259,12.2296049 Z M63.0804588,8.10480457 C61.1181363,10.2447386 61.3361721,12.3846725 61.3361721,12.3846725 C61.3361721,12.3846725 61.7410958,12.0125101 62.1460195,11.4387597 C63.1271808,10.0741641 64.2329339,8.0427775 64.2329339,8.0427775 C64.2329339,8.0427775 63.7034183,7.43801355 63.0804588,8.10480457 Z M69.9174397,12.1365643 C70.4002333,11.9970033 71.5838564,10.5858875 71.9887801,9.5934543 C71.9887801,9.5934543 72.14452,10.4928468 71.6305784,11.3922394 C71.3502466,11.888456 70.2600674,13.1445042 69.9330137,13.2375448 C69.7149778,13.2995718 68.8584085,13.0979839 68.6870946,12.8808891 C68.110857,12.0280169 70.2600674,7.88770982 70.2600674,7.88770982 C70.2600674,7.88770982 69.0452963,9.06622419 68.0329871,10.4773401 C67.0985478,11.7954154 66.3821443,13.2375448 66.3821443,13.2375448 C66.3821443,13.2375448 65.494427,13.3615989 65.1985212,12.8033553 C64.9026154,12.2296049 66.75592,7.15889173 67.6124894,6.8332496 C68.4690588,6.47659393 68.7493905,6.91078344 68.7493905,6.91078344 C68.7493905,6.91078344 68.2510229,7.84118952 67.7526553,9.00419712 C67.3010096,9.99663027 67.0051039,10.9115296 67.0051039,10.9115296 C67.0051039,10.9115296 67.6280634,9.91909643 68.4690588,9.00419712 C69.419072,7.96524366 70.1199015,7.29845264 70.4781032,7.2209188 C70.851879,7.14338496 71.5994304,7.63960153 71.5838564,7.81017598 C71.5838564,7.94973689 70.2600674,10.7099416 69.9174397,12.1365643 Z M77.2683621,9.11274449 C77.2216402,9.26781217 76.8634384,9.62446784 76.4585147,9.9346032 C75.9601471,10.3067656 75.7576853,10.3687927 75.7576853,10.3687927 C75.7576853,10.3687927 74.9634119,13.0049433 73.0633853,13.222038 C71.7863183,13.3615989 70.758435,12.4156861 71.4748385,9.9811235 C71.6617264,9.28331894 72.0355021,9.34534601 72.0355021,9.34534601 C72.0355021,9.34534601 72.7051836,6.78672929 74.4494703,6.56963454 C75.0412818,6.47659393 75.9445731,6.8797699 76.115887,7.12787819 C76.5052367,7.6551083 75.9912951,9.51592046 75.9912951,9.51592046 C75.9912951,9.51592046 76.5052367,9.22129187 76.7544205,9.01970388 C77.0659003,8.78710236 77.1437702,8.61652792 77.1437702,8.61652792 C77.1437702,8.61652792 77.3462321,8.84912944 77.2683621,9.11274449 Z M75.2593176,7.2209188 C75.0412818,7.2209188 73.6707708,8.4304467 73.6084749,10.0276438 C73.5617529,10.5858875 74.5740622,10.4308198 74.807672,10.2602453 C75.2281697,9.9346032 75.4773535,7.23642557 75.2593176,7.2209188 Z M72.9855154,10.5858875 C72.9855154,10.5858875 72.175668,12.6948079 72.8142015,12.8033553 C73.7486408,12.958423 74.5740622,10.8339957 74.5740622,10.8339957 C74.5740622,10.8339957 74.1535645,11.0355837 73.7174928,10.9890634 C72.9387934,10.9115296 72.9855154,10.5858875 72.9855154,10.5858875 Z M79.7133187,5.68569871 C79.7134194,5.68573202 79.7134783,5.68574877 79.7134783,5.68574877 L79.7133187,5.68569871 Z M79.7134783,5.68574877 C79.7134569,5.68580549 78.9659188,7.67064166 78.4052633,9.53142723 C77.9224696,11.1596379 77.7978777,12.5087267 78.1560795,12.6017673 C78.841335,12.7723417 80.07168,10.7564619 80.2741419,10.3532859 C80.3364378,10.2447386 80.4143078,10.7874754 80.0093841,11.5318003 C79.7290523,12.0280169 78.5298552,13.5321734 77.5798419,13.1910245 C76.100313,12.6482876 77.0036043,8.91115651 78.3741153,5.68574877 C77.9536176,5.7167623 77.424102,5.73226907 77.2372142,5.65473523 C76.9413084,5.51517432 77.0347523,4.81736976 77.0347523,4.81736976 L78.794613,4.72432915 C79.6200344,3.00307791 80.5233257,1.54544171 81.1774332,1.03371837 C82.0495765,0.304900275 82.781554,0.630542403 82.9840158,0.754596547 C82.8905719,0.723583011 82.6881101,0.754596547 82.2364644,1.17327928 C81.3487471,2.05716506 80.2274199,4.70882238 80.2274199,4.70882238 C80.2274199,4.70882238 80.7257875,4.66230208 81.6135049,4.75534269 C82.0651505,4.80186299 82.0807245,5.57720139 82.0807245,5.57720139 C82.0807245,5.57720139 81.8315407,5.56169462 80.7413615,5.60821493 C79.630882,5.6536541 79.709084,5.68429888 79.7133187,5.68569871 L79.7134783,5.68574877 Z M82.9840158,0.754596547 C83.0307378,0.770103315 83.0463118,0.801116851 83.0463118,0.801116851 L82.9840158,0.754596547 Z M84.6971545,11.48528 C85.5692979,10.5083536 86.1611094,9.73301521 86.1611094,9.73301521 C86.1611094,9.73301521 85.9897956,10.616901 85.0865042,11.9659898 C84.6504326,12.6017673 83.8873072,13.2995718 83.7471413,13.3150786 C83.6069754,13.3460922 82.5790921,13.1600109 82.734832,12.0745372 C82.9684418,10.1206844 84.4168228,8.0427775 84.3701008,7.88770982 C84.3078048,7.73264214 83.5758274,8.16683165 82.5946661,9.57794753 C81.5512089,11.0510905 80.7880835,13.3305854 80.7880835,13.3305854 C80.7880835,13.3305854 79.5265904,13.1755177 79.5733124,12.6637944 C79.8536442,10.4928468 81.9561326,4.10405843 82.734832,2.61540871 C83.2331996,1.60746879 84.4791187,1.99513799 84.4791187,1.99513799 C84.4791187,1.99513799 84.2610829,2.36730042 84.074195,2.73946285 C83.0774598,4.60027501 81.5667829,9.71750844 81.5667829,9.71750844 C81.5667829,9.71750844 83.5914014,6.95730374 84.3545268,7.09686465 C85.1176522,7.25193233 85.5070019,7.98075043 85.4914279,8.21335195 C85.475854,8.4304467 84.3078048,10.4928468 83.7938632,12.1830846 C83.9807511,12.1055507 84.2766569,11.9039627 84.6971545,11.48528 Z M91.7833192,13.4081192 C91.5808574,14.1524441 92.001355,14.2144712 91.9857811,14.3850456 C91.9857811,14.5556201 90.9111759,14.4160591 90.5841221,13.625214 C90.3037903,12.9274094 92.4685747,7.67061507 92.3595568,7.42250678 C92.3128348,7.31395941 91.9702071,7.20541203 91.5185614,7.09686465 C90.6308441,10.415313 88.7152435,13.1289974 86.5971811,13.222038 C86.2234054,13.2375448 85.38241,12.9119026 85.2733921,11.7799086 C85.1488002,10.8339957 85.46028,9.26781217 86.799643,7.62409477 C87.1734187,7.15889173 88.029988,6.47659393 88.6685216,6.53862101 C89.2603331,6.60064808 89.8209967,7.2674391 89.8832926,7.37598648 C90.4595302,8.97318358 87.6562123,11.0665973 87.1111227,11.0665973 C86.6750511,11.0665973 86.5504591,10.8339957 86.5504591,10.8339957 C86.5504591,10.8339957 86.4102933,11.2526785 86.4414412,11.6713612 C86.4725892,12.1830846 86.5504591,12.555247 86.8463649,12.5087267 C87.2668626,12.4311928 87.7963782,12.0745372 88.1701539,11.7799086 C89.462795,10.7874754 90.5529741,8.4304467 90.77101,6.91078344 C90.0857545,6.74020899 89.384925,6.52311424 89.1668892,6.19747211 C89.1045932,6.11993827 88.9955753,5.56169462 89.0890192,5.34459987 C89.5562389,4.21260581 90.9578978,3.56132155 91.5497094,3.731896 C92.4374267,3.96449752 91.7054493,6.52311424 91.7054493,6.52311424 C91.7054493,6.52311424 92.1882429,6.66267515 92.4841487,6.86426313 C92.6710365,7.01933081 92.9513683,7.34497294 93.1226822,7.51554739 C93.340718,7.76365568 93.403014,7.81017598 93.449736,8.16683165 C93.4653099,8.39943317 92.2193909,11.9814966 91.7833192,13.4081192 Z M91.2849516,4.47622086 C91.2226556,4.36767349 89.8832926,5.91835029 90.0546065,6.19747211 C90.1324765,6.33703302 90.9578978,6.41456686 90.9578978,6.41456686 C90.9578978,6.41456686 91.4406915,4.73983592 91.2849516,4.47622086 Z M88.8242614,8.33740609 C89.3070551,7.67061507 89.2136111,7.25193233 89.2136111,7.25193233 C89.2136111,7.25193233 88.5750776,7.37598648 87.8898221,8.21335195 C87.1734187,9.06622419 86.706199,10.2447386 86.706199,10.2447386 C86.706199,10.2447386 87.3914545,10.3532859 88.8242614,8.33740609 Z" id="Yet-another"></path>
                <path d="M26.6062676,11.5348375 C26.6062676,11.5348375 19.7225648,28.1049268 16.2050683,41.3609981 C15.1082145,45.2399054 15.6755527,47.3111665 15.6755527,47.3111665 C15.6755527,47.3111665 12.3093463,47.6877595 12.7632169,42.4531176 C13.3683775,34.3187102 23.429174,11.8737712 23.429174,11.8737712 C23.429174,11.8737712 16.4320035,12.1750455 10.5695094,15.6397005 C6.86290015,17.8615989 9.58612325,22.4560327 9.58612325,22.4560327 C9.58612325,22.4560327 5.46346607,18.1252139 9.69959088,13.907373 C13.8600706,9.61421355 27.7787664,8.07018251 27.400541,9.23762062 C27.0601381,10.7063331 26.6062676,11.5348375 26.6062676,11.5348375 Z M42.3026229,36.2016749 C44.3450402,33.7914801 45.4040714,31.5695818 45.4040714,31.5695818 C45.4040714,31.5695818 44.4963304,35.5238076 42.6430258,38.0469803 C41.4327044,39.7416485 40.6762536,40.3065379 40.1089154,40.4948344 C39.6550449,40.6831308 37.7260952,40.19356 37.3478698,39.6286706 C35.8727906,37.5574095 41.1679466,27.0881258 41.1679466,27.0881258 C41.1679466,27.0881258 38.2177883,30.0255507 35.7215004,33.4902058 C33.9438409,35.9380598 32.9982773,38.7248476 32.1283589,40.6078123 C31.3340855,40.4948344 30.3128768,40.1182414 30.048119,39.7416485 C28.6486849,37.6703874 33.9816635,27.0881258 33.9816635,27.0881258 C33.9816635,27.0881258 31.0315051,30.0255507 28.5352173,33.4902058 C26.2658647,36.728905 24.4503826,40.570153 24.4503826,40.570153 C24.4503826,40.570153 22.2944977,40.8714273 21.5758694,39.4780334 C20.781596,38.0846396 25.3959462,25.3557983 27.4761861,24.5272939 C29.632071,23.6611301 30.3128768,24.7155903 30.3128768,24.7155903 C30.3128768,24.7155903 29.0647329,27.0128072 27.816589,29.8372543 C26.7575578,32.2851084 25.9632844,34.9212589 25.9632844,34.9212589 C25.9632844,34.9212589 27.5140086,32.0968119 29.5942485,29.8372543 C31.9014236,27.3140816 33.6790831,25.6194134 34.5868241,25.4687762 C35.4189201,25.318139 37.083112,26.4855771 37.0452894,26.9374886 C37.0452894,27.1257851 35.8349681,29.6866171 34.7381143,32.3980862 C35.2676299,31.6072411 35.9484357,30.703418 36.7427091,29.8372543 C39.0877068,27.3140816 40.7897212,25.6194134 41.6974622,25.4687762 C42.6052033,25.318139 44.1937501,26.4855771 44.1937501,26.9374886 C44.1559275,27.2764223 40.9031888,34.3187102 40.0710929,37.8210245 C40.6006085,37.7080466 41.3192368,37.2561351 42.3026229,36.2016749 Z M54.4058367,38.1222989 C54.4814817,38.3105953 55.7674482,37.1054979 56.7130118,35.7874227 C58.3772037,33.4525465 60.1548632,30.06321 60.1548632,30.06321 C60.1548632,30.06321 58.3015586,39.3650556 54.6705945,40.570153 C53.8384985,40.8714273 52.0986615,40.2312193 51.7582587,39.8546264 C50.9639852,38.7248476 51.4556783,35.7874227 51.4556783,35.7874227 C51.4556783,35.7874227 48.1651171,40.4948344 47.2951986,40.6454716 C46.4252801,40.7584494 44.3828628,40.19356 44.0424599,39.2520777 C43.5885894,38.3482546 43.6264119,31.3812853 49.8671315,26.0713249 C51.7204361,24.4519753 54.9353523,27.0504665 54.9353523,27.0504665 C54.9353523,27.0504665 55.5783355,25.318139 56.6373667,25.0921833 C57.772043,24.7532496 59.2092996,25.8453691 59.2092996,25.8453691 C59.2092996,25.8453691 58.4528488,26.8621701 57.6207528,28.3685418 C55.3135777,32.1721305 54.2545465,37.8963431 54.4058367,38.1222989 Z M51.3043881,28.1049268 C46.5387477,33.3019093 47.0682633,38.4988918 47.0682633,38.4988918 C47.0682633,38.4988918 48.0516494,37.5950688 49.0350356,36.2016749 C51.4178558,32.8876571 54.1032563,27.9542896 54.1032563,27.9542896 C54.1032563,27.9542896 52.8172899,26.4855771 51.3043881,28.1049268 Z M72.3715446,32.0214933 C71.3503359,32.0214933 70.3669498,30.4021437 70.3669498,30.4021437 C70.3669498,30.4021437 70.1400145,33.1889314 67.7193718,34.9212589 C65.298729,36.6535864 62.0459903,35.825082 62.0459903,35.825082 L60.3061534,37.5197502 C60.3061534,37.5197502 64.4288105,35.4108297 68.4758226,38.0846396 C74.1492041,41.8505689 73.4683983,46.8969143 70.51824,50.4368879 C66.8494533,54.805366 59.9657505,58.4583175 55.3892228,55.8974855 C48.9593905,52.2821933 56.4860765,42.9426885 57.4316401,42.3401398 C58.4528488,41.8505689 60.1548632,44.675016 60.1548632,44.675016 C60.1548632,44.675016 52.5525321,52.2068747 56.1456736,54.7300474 C58.188091,56.1611006 62.9537314,54.0145208 66.622518,49.8719985 C71.5016261,44.3360823 70.51824,40.9090866 67.6437267,39.4027149 C65.0717938,38.0469803 60.1548632,40.570153 60.1548632,40.570153 C60.1548632,40.570153 57.6585754,39.4780334 57.5829303,38.8378255 C57.4316401,38.1599582 60.7600239,35.0718961 60.7600239,35.0718961 C60.7600239,35.0718961 56.864302,33.26425 60.003573,28.0296082 C62.8024412,23.397515 67.946307,25.5064355 67.946307,25.5064355 C67.946307,25.5064355 69.0431608,22.1924176 69.7617891,22.0794398 C70.7451752,21.9288026 72.2580769,24.037723 72.2580769,24.037723 C72.2580769,24.037723 70.4804174,26.2219621 70.4804174,27.7659931 C70.51824,29.5359799 72.0311417,30.1008693 72.5606573,30.2891658 C73.0523503,30.5527808 72.7119475,32.0214933 72.3715446,32.0214933 Z M67.7571943,27.238763 C66.9629209,26.7868515 64.5422782,27.0504665 63.1806666,28.6321569 C61.8190551,30.1385286 61.3651846,33.0382942 62.0459903,33.7914801 C62.8024412,34.5823253 65.3365516,33.7914801 67.1142111,31.6449004 C68.4758226,30.0255507 68.5136452,27.6530152 67.7571943,27.238763 Z M75.6242833,35.4108297 C74.3761393,35.4108297 74.3761393,34.8459403 74.3761393,34.8459403 C74.3761393,34.8459403 74.0357365,35.3731704 73.9222688,36.6535864 C73.8088012,38.0846396 74.0357365,38.9508033 75.0191226,38.7248476 C76.0781538,38.5365511 77.137185,37.7080466 78.1205711,36.9172015 C80.2386335,35.2225333 81.4111323,33.5655243 81.4111323,33.5655243 C81.4111323,33.5655243 81.4111323,34.4693474 80.7303266,35.7497634 C79.5578277,37.8586838 76.8346046,40.570153 74.3761393,40.570153 C73.4683983,40.570153 71.3503359,39.929945 71.0477556,36.9172015 C70.7451752,34.8459403 71.6529162,30.8540552 74.7165422,26.7115329 C75.6242833,25.7700505 77.5910555,24.037723 79.2552474,24.2636788 C80.692504,24.414316 82.0541156,25.6194134 82.2810508,26.0713249 C84.1343554,29.4983206 76.8346046,35.4108297 75.6242833,35.4108297 Z M80.7303266,25.7323913 C80.7303266,25.7323913 79.2552474,26.0336656 77.4775879,28.1049268 C75.6242833,30.2891658 74.7165422,33.26425 74.7165422,33.26425 C74.7165422,33.26425 76.2294439,33.527865 79.8604081,28.4438604 C80.7303266,26.8998294 80.7303266,25.7323913 80.7303266,25.7323913 Z" id="Image"></path>
                <path d="M38.7404374,59.9136039 C38.7404374,59.9136039 38.7404567,59.9135704 38.7404953,59.9135036 L38.740438,59.9136043 L38.7404374,59.9136039 Z M38.7404953,59.9135036 C38.7601437,59.8795147 43.76772,51.2145286 42.1822888,51.3272849 C30.986816,52.231108 23.1197271,65.6378165 23.1197271,65.6378165 C23.1197271,65.6378165 31.9323796,63.641874 40.3289842,62.7757102 C48.4608309,61.984865 55.9118719,61.3823163 56.1766297,62.2861394 C56.4413875,63.2276217 51.9405048,68.7635379 48.1960731,76.596671 C44.1112385,85.18299 40.4046292,95.1627028 40.4046292,95.1627028 C40.4046292,95.1627028 38.7026148,95.6522736 37.8705189,92.752508 C36.6601975,88.3840299 49.2172818,67.5584405 49.2172818,67.5584405 C49.2172818,67.5584405 25.1243219,93.5810124 15.0257029,88.007437 C8.25546772,84.2415076 16.1603792,70.8724583 16.1603792,70.8724583 C16.1603792,70.8724583 12.3024798,72.1528743 8.10417755,74.1864762 C4.58668106,75.9188037 0.615314045,78.517295 0.615314045,78.517295 C0.615314045,78.517295 -0.632829872,76.1447595 0.426201331,74.676047 C2.61990882,71.7386221 18.3919092,67.0688697 18.3919092,67.0688697 C18.3919092,67.0688697 29.4360918,48.38986 42.5983367,49.9338911 C45.8510754,50.310484 44.3759963,58.4072321 42.0688211,59.4616924 C39.8005037,60.5156716 38.7414037,59.9141532 38.740438,59.9136043 L38.7404953,59.9135036 Z M33.7100391,65.6378165 C27.2045617,66.7675953 20.8881971,68.9518344 20.8881971,68.9518344 C20.8881971,68.9518344 10.3357076,86.3880873 17.9002162,87.5178662 C25.69166,88.7606229 50.9571187,63.7171925 50.9571187,63.7171925 C50.9571187,63.7171925 41.993176,64.2067634 33.7100391,65.6378165 Z M61.5852533,84.2038483 C61.6608984,84.3921448 62.9468648,83.1870474 63.8924284,81.8689721 C65.5566203,79.5340959 67.3342798,76.1447595 67.3342798,76.1447595 C67.3342798,76.1447595 65.4809752,85.446605 61.8500111,86.6517024 C61.0179152,86.9529768 59.2780782,86.3127688 58.9376753,85.9361758 C58.1434019,84.806397 58.6350949,81.8689721 58.6350949,81.8689721 C58.6350949,81.8689721 55.3445337,86.5763838 54.4746152,86.727021 C53.6046967,86.8399989 51.5622794,86.2751095 51.2218765,85.3336271 C50.768006,84.4298041 50.8058286,77.4628347 57.0465481,72.1528743 C58.8998528,70.5335247 62.1147689,73.132016 62.1147689,73.132016 C62.1147689,73.132016 62.7577521,71.3996885 63.8167833,71.1737327 C64.9514596,70.8347991 66.3887163,71.9269186 66.3887163,71.9269186 C66.3887163,71.9269186 65.6322654,72.9437195 64.8001695,74.4500912 C62.4929943,78.2536799 61.4339631,83.9778926 61.5852533,84.2038483 Z M58.4838048,74.1864762 C53.7181644,79.3834587 54.24768,84.5804413 54.24768,84.5804413 C54.24768,84.5804413 55.2310661,83.6766182 56.2144522,82.2832243 C58.5972724,78.9692065 61.282673,74.035839 61.282673,74.035839 C61.282673,74.035839 59.9967065,72.5671266 58.4838048,74.1864762 Z M76.8277381,58.896803 C76.8277381,58.896803 75.2770139,57.7293649 73.8775798,58.6331879 C72.4403231,59.5370109 64.9136371,79.7600517 64.8001695,82.4338615 C64.6867018,85.6725608 66.7669417,86.9153175 67.9772631,86.6893617 C69.7927451,86.3504281 72.8185486,81.341742 72.8185486,81.341742 C72.8185486,81.341742 71.9108075,83.525981 72.5537908,84.9946935 C73.1211289,86.3127688 74.6718532,86.8023396 75.1257237,86.6893617 C77.2059635,86.2374502 80.6856375,81.9442907 81.0260404,80.7768526 C81.4042658,79.5340959 81.4420884,78.4043171 81.4420884,78.4043171 C81.4420884,78.4043171 80.3830572,79.8730295 79.1349132,81.341742 C77.9624144,82.6598173 76.1469323,84.2038483 75.5417717,83.8649147 C74.936611,83.525981 78.4162849,73.7345647 85.1486976,58.3319136 C85.1486976,58.3319136 82.9171675,57.3904312 81.9337814,58.6331879 C81.4042658,59.3110552 79.815719,62.8133695 76.0334647,72.2658522 C74.936611,74.9773214 73.8397572,77.3498569 73.612822,77.6511312 C73.3858867,77.9900649 72.4025006,79.6470738 71.1165341,81.2664234 C69.7927451,82.9610916 68.2041983,84.6181005 67.901618,84.7310784 C66.8804093,85.1076714 67.7881503,82.0196093 68.9228266,78.78091 C71.0030665,72.9437195 76.8277381,58.896803 76.8277381,58.896803 Z M95.3986067,87.0659546 C94.9069137,88.8736007 95.9281223,89.0242379 95.8902998,89.4384901 C95.8902998,89.8527424 93.2805443,89.5138087 92.4862709,87.5931847 C91.8054651,85.8985165 97.0627986,73.132016 96.7980408,72.5294673 C96.6845732,72.2658522 95.8524772,72.0022372 94.7556235,71.7386221 C92.5997385,79.797711 87.9475657,86.3880873 82.8036999,86.6140431 C81.8959589,86.6517024 79.8535416,85.8608572 79.5887838,83.1117288 C79.2862034,80.8145119 80.0426543,77.0109232 83.295393,73.0190381 C84.203134,71.8892593 86.2833739,70.2322504 87.8340981,70.3828875 C89.2713547,70.5335247 90.6329663,72.1528743 90.7842565,72.4164894 C92.1836906,76.2953966 85.3756328,81.3794013 84.0518438,81.3794013 C82.9928126,81.3794013 82.6902323,80.8145119 82.6902323,80.8145119 C82.6902323,80.8145119 82.3498294,81.8313128 82.4254745,82.8481137 C82.5011196,84.0908704 82.6902323,84.9946935 83.4088606,84.8817156 C84.4300693,84.6934191 85.7160357,83.8272554 86.6237767,83.1117288 C89.7630478,80.701534 92.4106258,74.9773214 92.9401414,71.2867106 C91.2759495,70.8724583 89.5739351,70.3452282 89.0444195,69.5543831 C88.8931293,69.3660866 88.6283715,68.010352 88.8553068,67.4831219 C89.9899831,64.7339935 93.3940119,63.1523031 94.8312686,63.5665554 C96.9871535,64.1314448 95.209494,70.3452282 95.209494,70.3452282 C95.209494,70.3452282 96.3819928,70.6841619 97.1006211,71.1737327 C97.5544917,71.5503256 98.2352974,72.3411708 98.6513454,72.755423 C99.180861,73.3579717 99.3321512,73.4709496 99.4456188,74.3371134 C99.4834413,74.9020028 96.4576379,83.6012996 95.3986067,87.0659546 Z M94.1882853,65.3742015 C94.0369952,65.1105864 90.7842565,68.8765158 91.2003044,69.5543831 C91.3894172,69.8933167 93.3940119,70.0816132 93.3940119,70.0816132 C93.3940119,70.0816132 94.5665108,66.0144095 94.1882853,65.3742015 Z M88.2123235,74.7513656 C89.3848224,73.132016 89.1578871,72.115215 89.1578871,72.115215 C89.1578871,72.115215 87.6071629,72.4164894 85.942971,74.4500912 C84.203134,76.5213524 83.0684577,79.3834587 83.0684577,79.3834587 C83.0684577,79.3834587 84.7326496,79.6470738 88.2123235,74.7513656 Z M105.837629,71.3996885 C105.837629,71.3996885 102.849648,69.930976 101.866262,72.0022372 C97.3275564,81.3794013 98.0461847,84.9193749 98.6513454,86.0114944 C99.3321512,87.2542511 101.071988,86.6140431 101.601504,86.1997909 C102.547067,85.4842643 104.249082,83.0740695 104.249082,83.0740695 C104.249082,83.0740695 99.8238442,98.5520392 100.882875,99.2299065 C102.471422,100.171389 103.757389,99.9077738 103.757389,99.9077738 C103.757389,99.9077738 103.606099,99.2299065 103.719566,98.5520392 C104.173437,95.6146143 107.19924,81.4923792 112.229638,73.2449939 C113.553427,71.1360734 113.969475,70.571184 113.969475,70.571184 C113.969475,70.571184 113.175202,69.5543831 111.35972,70.3828875 C109.317303,71.2490513 102.58489,83.6389589 101.412391,83.9402333 C101.034166,84.0908704 102.547067,77.6511312 104.892065,72.9437195 C105.610693,71.6256442 105.837629,71.3996885 105.837629,71.3996885 Z" id="Gallery"></path>
            </g>
        </g>
    </g>
</svg>